policy_engine.c:21:6:v_Policy_Engine_Task	48	static
policy_engine.c:53:6:Post_to_Policy_Engine_Queue	24	static
policy_engine.c:59:6:Post_to_Policy_Engine_Queue_ISR	24	static
policy_engine.c:65:13:v_Update_Policy_Engine_State	32	static
